{
    "name": "MechanicsInputMap",
    "maps": [
        {
            "name": "Sound Test Menu",
            "id": "bb6d01f7-2edf-4325-9034-9ab7fcb83a45",
            "actions": [
                {
                    "name": "Select",
                    "type": "Button",
                    "id": "e4ce8afc-cc70-4007-9c8a-13b6048dc3e6",
                    "expectedControlType": "Button",
                    "processors": "",
                    "interactions": ""
                },
                {
                    "name": "Back to Menu",
                    "type": "Button",
                    "id": "de63e261-dd73-4ee8-ac20-1ec4bb5dba9f",
                    "expectedControlType": "Button",
                    "processors": "",
                    "interactions": ""
                },
                {
                    "name": "ChangeAudioType",
                    "type": "Button",
                    "id": "cfa9e2c2-399e-4015-8344-467599b79fb7",
                    "expectedControlType": "Button",
                    "processors": "",
                    "interactions": ""
                },
                {
                    "name": "NextFile",
                    "type": "Value",
                    "id": "f9e31403-9e16-4949-9c0d-6c271e960414",
                    "expectedControlType": "Axis",
                    "processors": "",
                    "interactions": ""
                },
                {
                    "name": "PreviousFile",
                    "type": "Button",
                    "id": "0d920c31-abb1-4c1b-932c-5c1b8dab7fa7",
                    "expectedControlType": "Button",
                    "processors": "",
                    "interactions": ""
                },
                {
                    "name": "NavTest",
                    "type": "Value",
                    "id": "a7bb271d-db8b-410f-a1e5-e372f211bdf1",
                    "expectedControlType": "Vector2",
                    "processors": "",
                    "interactions": ""
                }
            ],
            "bindings": [
                {
                    "name": "",
                    "id": "80ae82a5-a7e7-42fe-86a0-cc38373a4fae",
                    "path": "<Gamepad>/buttonSouth",
                    "interactions": "",
                    "processors": "",
                    "groups": "Generic Gamepad",
                    "action": "Select",
                    "isComposite": false,
                    "isPartOfComposite": false
                },
                {
                    "name": "",
                    "id": "51de6cd2-e6cc-4146-b37a-fd8abd540091",
                    "path": "<Keyboard>/space",
                    "interactions": "",
                    "processors": "",
                    "groups": "Mouse&Keyboard",
                    "action": "Select",
                    "isComposite": false,
                    "isPartOfComposite": false
                },
                {
                    "name": "",
                    "id": "c034bf77-36f1-4607-b684-a92612d5c4ab",
                    "path": "<Gamepad>/buttonEast",
                    "interactions": "",
                    "processors": "",
                    "groups": "Generic Gamepad",
                    "action": "Back to Menu",
                    "isComposite": false,
                    "isPartOfComposite": false
                },
                {
                    "name": "",
                    "id": "407bbd32-77e8-4219-8da3-6f3d16b29bfe",
                    "path": "<Keyboard>/escape",
                    "interactions": "",
                    "processors": "",
                    "groups": "Mouse&Keyboard",
                    "action": "Back to Menu",
                    "isComposite": false,
                    "isPartOfComposite": false
                },
                {
                    "name": "",
                    "id": "486dc7a4-c90c-4792-936c-89b9cafd5a4f",
                    "path": "<Keyboard>/downArrow",
                    "interactions": "",
                    "processors": "",
                    "groups": "Mouse&Keyboard",
                    "action": "ChangeAudioType",
                    "isComposite": false,
                    "isPartOfComposite": false
                },
                {
                    "name": "",
                    "id": "9eaa6118-211c-4ea4-98c1-5c8f5c175d54",
                    "path": "<Keyboard>/upArrow",
                    "interactions": "",
                    "processors": "",
                    "groups": "Mouse&Keyboard",
                    "action": "ChangeAudioType",
                    "isComposite": false,
                    "isPartOfComposite": false
                },
                {
                    "name": "",
                    "id": "4ca44049-bae2-44df-83cf-46454324139b",
                    "path": "<Gamepad>/dpad/down",
                    "interactions": "",
                    "processors": "",
                    "groups": "Generic Gamepad",
                    "action": "ChangeAudioType",
                    "isComposite": false,
                    "isPartOfComposite": false
                },
                {
                    "name": "",
                    "id": "8c6c4d50-add2-4c05-9d6c-22392b050ea1",
                    "path": "<Gamepad>/dpad/up",
                    "interactions": "",
                    "processors": "",
                    "groups": "Generic Gamepad",
                    "action": "ChangeAudioType",
                    "isComposite": false,
                    "isPartOfComposite": false
                },
                {
                    "name": "",
                    "id": "2445455d-a270-446c-9aa2-bc63afbe64ae",
                    "path": "<Gamepad>/leftStick/down",
                    "interactions": "",
                    "processors": "AxisDeadzone",
                    "groups": "Generic Gamepad",
                    "action": "ChangeAudioType",
                    "isComposite": false,
                    "isPartOfComposite": false
                },
                {
                    "name": "",
                    "id": "59d082ab-2424-456b-aacf-5a1568b338bd",
                    "path": "<Gamepad>/leftStick/up",
                    "interactions": "",
                    "processors": "",
                    "groups": "Generic Gamepad",
                    "action": "ChangeAudioType",
                    "isComposite": false,
                    "isPartOfComposite": false
                },
                {
                    "name": "",
                    "id": "4b9a8b43-20b2-40d1-a449-ae306b28ee99",
                    "path": "<Keyboard>/rightArrow",
                    "interactions": "",
                    "processors": "",
                    "groups": "Mouse&Keyboard",
                    "action": "NextFile",
                    "isComposite": false,
                    "isPartOfComposite": false
                },
                {
                    "name": "",
                    "id": "a82c170a-50f2-4c86-9dcd-84157a0bfdd7",
                    "path": "<Gamepad>/leftStick/right",
                    "interactions": "Hold",
                    "processors": "AxisDeadzone(min=1,max=1)",
                    "groups": "Generic Gamepad",
                    "action": "NextFile",
                    "isComposite": false,
                    "isPartOfComposite": false
                },
                {
                    "name": "",
                    "id": "a5e5f097-6a67-495e-b9c7-9295fa6f5004",
                    "path": "<Gamepad>/dpad/right",
                    "interactions": "",
                    "processors": "",
                    "groups": "Generic Gamepad",
                    "action": "NextFile",
                    "isComposite": false,
                    "isPartOfComposite": false
                },
                {
                    "name": "",
                    "id": "059b290b-a1e5-4b40-8ba6-b4e80da53d3d",
                    "path": "<Keyboard>/leftArrow",
                    "interactions": "",
                    "processors": "",
                    "groups": "Mouse&Keyboard",
                    "action": "PreviousFile",
                    "isComposite": false,
                    "isPartOfComposite": false
                },
                {
                    "name": "",
                    "id": "1986f299-ba7c-4fec-ac19-36790bfeaa4e",
                    "path": "<Gamepad>/leftStick/left",
                    "interactions": "",
                    "processors": "AxisDeadzone(min=0.8)",
                    "groups": "Generic Gamepad",
                    "action": "PreviousFile",
                    "isComposite": false,
                    "isPartOfComposite": false
                },
                {
                    "name": "",
                    "id": "23953111-d95c-4300-80eb-9c874ed5e2e5",
                    "path": "<Gamepad>/dpad/left",
                    "interactions": "",
                    "processors": "",
                    "groups": "Generic Gamepad",
                    "action": "PreviousFile",
                    "isComposite": false,
                    "isPartOfComposite": false
                },
                {
                    "name": "Stick",
                    "id": "3a1d8a7f-2a92-4ba4-b23b-b2fb7598219b",
                    "path": "2DVector",
                    "interactions": "",
                    "processors": "",
                    "groups": "Generic Gamepad",
                    "action": "NavTest",
                    "isComposite": true,
                    "isPartOfComposite": false
                },
                {
                    "name": "2D Vector",
                    "id": "869d57e1-bf11-48b6-bd34-f98c4613873f",
                    "path": "2DVector",
                    "interactions": "",
                    "processors": "",
                    "groups": "",
                    "action": "NavTest",
                    "isComposite": true,
                    "isPartOfComposite": false
                },
                {
                    "name": "up",
                    "id": "0d8733c8-c977-4ef9-8df1-7f2f1cb2b5ea",
                    "path": "<Gamepad>/rightStick/up",
                    "interactions": "",
                    "processors": "",
                    "groups": "Generic Gamepad",
                    "action": "NavTest",
                    "isComposite": false,
                    "isPartOfComposite": true
                },
                {
                    "name": "up",
                    "id": "1ed4e1f4-62df-42ad-b27e-653928dda684",
                    "path": "<Gamepad>/leftStick/up",
                    "interactions": "",
                    "processors": "",
                    "groups": "Generic Gamepad",
                    "action": "NavTest",
                    "isComposite": false,
                    "isPartOfComposite": true
                },
                {
                    "name": "down",
                    "id": "75a5d9f4-3415-4381-a7dd-c7913088d873",
                    "path": "<Gamepad>/rightStick/down",
                    "interactions": "",
                    "processors": "",
                    "groups": "Generic Gamepad",
                    "action": "NavTest",
                    "isComposite": false,
                    "isPartOfComposite": true
                },
                {
                    "name": "down",
                    "id": "6b8fe585-17b4-4724-8bdf-7498cdc9b447",
                    "path": "<Gamepad>/leftStick/down",
                    "interactions": "",
                    "processors": "",
                    "groups": "Generic Gamepad",
                    "action": "NavTest",
                    "isComposite": false,
                    "isPartOfComposite": true
                },
                {
                    "name": "left",
                    "id": "1750c6f5-9ca7-4674-b747-602180e0cfa0",
                    "path": "",
                    "interactions": "",
                    "processors": "",
                    "groups": "Generic Gamepad",
                    "action": "NavTest",
                    "isComposite": false,
                    "isPartOfComposite": true
                },
                {
                    "name": "left",
                    "id": "c74f86c7-8d64-4e71-87f3-a62ad905eeaf",
                    "path": "",
                    "interactions": "",
                    "processors": "",
                    "groups": "Generic Gamepad",
                    "action": "NavTest",
                    "isComposite": false,
                    "isPartOfComposite": true
                },
                {
                    "name": "right",
                    "id": "6a58b16d-6485-4f5d-94ff-210d51ed53ed",
                    "path": "",
                    "interactions": "",
                    "processors": "",
                    "groups": "Generic Gamepad",
                    "action": "NavTest",
                    "isComposite": false,
                    "isPartOfComposite": true
                },
                {
                    "name": "right",
                    "id": "48354b86-62ae-4215-9580-68e44c6d6fbc",
                    "path": "",
                    "interactions": "",
                    "processors": "",
                    "groups": "Generic Gamepad",
                    "action": "NavTest",
                    "isComposite": false,
                    "isPartOfComposite": true
                }
            ]
        },
        {
            "name": "SimplePlatformer",
            "id": "ed8cc09f-96f9-44f7-b5ac-34a4fd43b788",
            "actions": [
                {
                    "name": "HorizontalAxis",
                    "type": "Value",
                    "id": "afc1a158-d785-43d9-af04-8b7723f3bd36",
                    "expectedControlType": "Vector2",
                    "processors": "",
                    "interactions": ""
                },
                {
                    "name": "VerticalAxis",
                    "type": "Button",
                    "id": "4b57d605-9c44-4eb1-95a2-31bbdb651a7d",
                    "expectedControlType": "Button",
                    "processors": "",
                    "interactions": ""
                },
                {
                    "name": "Jump",
                    "type": "Button",
                    "id": "cc329bd3-d346-45e6-9c62-70844924a65e",
                    "expectedControlType": "Button",
                    "processors": "",
                    "interactions": ""
                }
            ],
            "bindings": [
                {
                    "name": "",
                    "id": "d407021e-b2b3-45a5-a584-1d7e8d7f524e",
                    "path": "",
                    "interactions": "",
                    "processors": "",
                    "groups": "",
                    "action": "VerticalAxis",
                    "isComposite": false,
                    "isPartOfComposite": false
                },
                {
                    "name": "",
                    "id": "1f6b83eb-566b-4281-97f5-d079d56f7f6a",
                    "path": "<Keyboard>/z",
                    "interactions": "",
                    "processors": "",
                    "groups": "Mouse&Keyboard",
                    "action": "Jump",
                    "isComposite": false,
                    "isPartOfComposite": false
                },
                {
                    "name": "",
                    "id": "04300634-bf24-4f83-a69a-0154698b00e8",
                    "path": "<Gamepad>/buttonSouth",
                    "interactions": "",
                    "processors": "",
                    "groups": "Generic Gamepad",
                    "action": "Jump",
                    "isComposite": false,
                    "isPartOfComposite": false
                },
                {
                    "name": "2D Vector",
                    "id": "d17b8433-f084-4df8-9615-b44bbe344461",
                    "path": "2DVector",
                    "interactions": "",
                    "processors": "",
                    "groups": "",
                    "action": "HorizontalAxis",
                    "isComposite": true,
                    "isPartOfComposite": false
                },
                {
                    "name": "up",
                    "id": "5ec677bd-87be-4603-8d5c-ca4b532063ae",
                    "path": "",
                    "interactions": "",
                    "processors": "",
                    "groups": "Mouse&Keyboard",
                    "action": "HorizontalAxis",
                    "isComposite": false,
                    "isPartOfComposite": true
                },
                {
                    "name": "down",
                    "id": "b02bb311-ce1d-4c0b-87ff-0be6ffbc53aa",
                    "path": "",
                    "interactions": "",
                    "processors": "",
                    "groups": "Mouse&Keyboard",
                    "action": "HorizontalAxis",
                    "isComposite": false,
                    "isPartOfComposite": true
                },
                {
                    "name": "left",
                    "id": "fc51a77c-e3bb-4a3f-b130-98e92da7d8bd",
                    "path": "<Keyboard>/leftArrow",
                    "interactions": "",
                    "processors": "",
                    "groups": "Mouse&Keyboard",
                    "action": "HorizontalAxis",
                    "isComposite": false,
                    "isPartOfComposite": true
                },
                {
                    "name": "right",
                    "id": "20179065-d38a-4659-8856-ca6c6deaf36c",
                    "path": "<Keyboard>/rightArrow",
                    "interactions": "",
                    "processors": "",
                    "groups": "Mouse&Keyboard",
                    "action": "HorizontalAxis",
                    "isComposite": false,
                    "isPartOfComposite": true
                },
                {
                    "name": "",
                    "id": "27a9cac4-ac97-4408-80a1-5e32fbac0362",
                    "path": "<Gamepad>/leftStick",
                    "interactions": "",
                    "processors": "",
                    "groups": "Generic Gamepad",
                    "action": "HorizontalAxis",
                    "isComposite": false,
                    "isPartOfComposite": false
                }
            ]
        },
        {
            "name": "PauseMenu",
            "id": "c65f81a9-0cf7-42f0-879d-88a7a13b78a9",
            "actions": [
                {
                    "name": "Select",
                    "type": "Button",
                    "id": "ce4a2adc-ee15-4f2e-b9a5-6762671b18a5",
                    "expectedControlType": "Button",
                    "processors": "",
                    "interactions": ""
                },
                {
                    "name": "Cancel",
                    "type": "Button",
                    "id": "acc0b979-9772-4f62-8540-c60b7ee0894a",
                    "expectedControlType": "Button",
                    "processors": "",
                    "interactions": ""
                },
                {
                    "name": "Move",
                    "type": "Button",
                    "id": "068ab93b-3946-4f48-8833-b73cb3c870cf",
                    "expectedControlType": "Button",
                    "processors": "",
                    "interactions": ""
                },
                {
                    "name": "UnPause",
                    "type": "Button",
                    "id": "1ecbdd9f-6a19-4720-abdb-7fd6cb14caad",
                    "expectedControlType": "Button",
                    "processors": "",
                    "interactions": ""
                }
            ],
            "bindings": [
                {
                    "name": "",
                    "id": "70a794fd-ee55-4309-b4a2-720d4bbba099",
                    "path": "<XInputController>/buttonSouth",
                    "interactions": "",
                    "processors": "",
                    "groups": "Generic Gamepad",
                    "action": "Select",
                    "isComposite": false,
                    "isPartOfComposite": false
                },
                {
                    "name": "",
                    "id": "56ec17a5-d4c3-40db-83f5-7014d9f578df",
                    "path": "<SwitchProControllerHID>/buttonEast",
                    "interactions": "",
                    "processors": "",
                    "groups": "Generic Gamepad",
                    "action": "Select",
                    "isComposite": false,
                    "isPartOfComposite": false
                },
                {
                    "name": "",
                    "id": "a9f7eb32-fa95-4e56-a489-ccc61b2942b5",
                    "path": "<Keyboard>/enter",
                    "interactions": "",
                    "processors": "",
                    "groups": "Mouse&Keyboard",
                    "action": "Select",
                    "isComposite": false,
                    "isPartOfComposite": false
                },
                {
                    "name": "",
                    "id": "e06d9381-f5b8-4a60-8e13-1bffe687fa14",
                    "path": "<XInputController>/buttonEast",
                    "interactions": "",
                    "processors": "",
                    "groups": "Generic Gamepad",
                    "action": "Cancel",
                    "isComposite": false,
                    "isPartOfComposite": false
                },
                {
                    "name": "",
                    "id": "1bb72052-5317-4412-aa67-56e6b7e7bbe5",
                    "path": "<SwitchProControllerHID>/buttonSouth",
                    "interactions": "",
                    "processors": "",
                    "groups": "Generic Gamepad",
                    "action": "Cancel",
                    "isComposite": false,
                    "isPartOfComposite": false
                },
                {
                    "name": "",
                    "id": "b32358c2-ec50-4dab-aec8-0b11ac63fc98",
                    "path": "<Keyboard>/escape",
                    "interactions": "",
                    "processors": "",
                    "groups": "Mouse&Keyboard",
                    "action": "Cancel",
                    "isComposite": false,
                    "isPartOfComposite": false
                },
                {
                    "name": "",
                    "id": "5c1c92b1-70ef-4c50-940e-4bcd2be9cf40",
                    "path": "<Gamepad>/rightStick",
                    "interactions": "",
                    "processors": "",
                    "groups": "",
                    "action": "Move",
                    "isComposite": false,
                    "isPartOfComposite": false
                },
                {
                    "name": "2D Vector",
                    "id": "0e0d28ec-7cef-49dd-a139-ec7c1763ce39",
                    "path": "2DVector",
                    "interactions": "",
                    "processors": "",
                    "groups": "",
                    "action": "Move",
                    "isComposite": true,
                    "isPartOfComposite": false
                },
                {
                    "name": "up",
                    "id": "6f0b3fa5-1a56-46c6-80dc-85fdcb7ae713",
                    "path": "<Keyboard>/w",
                    "interactions": "",
                    "processors": "",
                    "groups": "Mouse&Keyboard",
                    "action": "Move",
                    "isComposite": false,
                    "isPartOfComposite": true
                },
                {
                    "name": "up",
                    "id": "8a0d1b75-c272-46b2-99df-a56763d0fb90",
                    "path": "<Keyboard>/upArrow",
                    "interactions": "",
                    "processors": "",
                    "groups": "Mouse&Keyboard",
                    "action": "Move",
                    "isComposite": false,
                    "isPartOfComposite": true
                },
                {
                    "name": "down",
                    "id": "5ac331e9-4853-4d69-99cb-5692990f8a16",
                    "path": "<Keyboard>/s",
                    "interactions": "",
                    "processors": "",
                    "groups": "Mouse&Keyboard",
                    "action": "Move",
                    "isComposite": false,
                    "isPartOfComposite": true
                },
                {
                    "name": "down",
                    "id": "bf2d7050-590f-4188-9980-ba319b294885",
                    "path": "<Keyboard>/downArrow",
                    "interactions": "",
                    "processors": "",
                    "groups": "Mouse&Keyboard",
                    "action": "Move",
                    "isComposite": false,
                    "isPartOfComposite": true
                },
                {
                    "name": "left",
                    "id": "4cbf6096-0ac4-4c66-8bfe-57f1dcaeb64c",
                    "path": "<Keyboard>/a",
                    "interactions": "",
                    "processors": "",
                    "groups": "Mouse&Keyboard",
                    "action": "Move",
                    "isComposite": false,
                    "isPartOfComposite": true
                },
                {
                    "name": "left",
                    "id": "5218afdb-dc03-4c18-a028-89e4811c759a",
                    "path": "<Keyboard>/leftArrow",
                    "interactions": "",
                    "processors": "",
                    "groups": "Mouse&Keyboard",
                    "action": "Move",
                    "isComposite": false,
                    "isPartOfComposite": true
                },
                {
                    "name": "right",
                    "id": "f6376dfe-1af0-4a8f-9be3-e92fb5bfec70",
                    "path": "<Keyboard>/d",
                    "interactions": "",
                    "processors": "",
                    "groups": "Mouse&Keyboard",
                    "action": "Move",
                    "isComposite": false,
                    "isPartOfComposite": true
                },
                {
                    "name": "right",
                    "id": "07c7c883-6a84-4c20-812c-73c443f79c25",
                    "path": "<Keyboard>/rightArrow",
                    "interactions": "",
                    "processors": "",
                    "groups": "Mouse&Keyboard",
                    "action": "Move",
                    "isComposite": false,
                    "isPartOfComposite": true
                },
                {
                    "name": "",
                    "id": "eb2302f9-2a5b-4f82-8602-fbf319b3f6f3",
                    "path": "<Gamepad>/dpad",
                    "interactions": "",
                    "processors": "",
                    "groups": "Generic Gamepad",
                    "action": "Move",
                    "isComposite": false,
                    "isPartOfComposite": false
                },
                {
                    "name": "",
                    "id": "44c656a6-2219-4a8e-aa04-fe2ffe254238",
                    "path": "<Gamepad>/leftStick",
                    "interactions": "",
                    "processors": "",
                    "groups": "Generic Gamepad",
                    "action": "Move",
                    "isComposite": false,
                    "isPartOfComposite": false
                },
                {
                    "name": "",
                    "id": "3960df67-e5bc-4a64-8e62-defcd7e6d890",
                    "path": "<Gamepad>/start",
                    "interactions": "",
                    "processors": "",
                    "groups": "",
                    "action": "UnPause",
                    "isComposite": false,
                    "isPartOfComposite": false
                },
                {
                    "name": "",
                    "id": "b0679b83-1ba9-4fe9-8120-8896773e87d8",
                    "path": "<Keyboard>/escape",
                    "interactions": "",
                    "processors": "",
                    "groups": "",
                    "action": "UnPause",
                    "isComposite": false,
                    "isPartOfComposite": false
                }
            ]
        },
        {
            "name": "SimpleTopDown",
            "id": "dc3d153b-21cd-42cc-886e-095a6fbe1a45",
            "actions": [
                {
                    "name": "Move",
                    "type": "Value",
                    "id": "746a8e79-42f6-4dd9-980c-9ac1a6fdd350",
                    "expectedControlType": "Vector2",
                    "processors": "",
                    "interactions": ""
                },
                {
                    "name": "Interact",
                    "type": "Button",
                    "id": "80e40f08-012d-4f43-a4e7-f6eee2aae046",
                    "expectedControlType": "Button",
                    "processors": "",
                    "interactions": ""
                },
                {
                    "name": "Shoot",
                    "type": "Button",
                    "id": "f40d11fb-1f50-486b-accc-60b9c833cad4",
                    "expectedControlType": "Button",
                    "processors": "",
                    "interactions": ""
                },
                {
                    "name": "Pause",
                    "type": "Button",
                    "id": "c66c3a9a-7ef7-461f-a466-aab04f8d4f37",
                    "expectedControlType": "Button",
                    "processors": "",
                    "interactions": ""
                }
            ],
            "bindings": [
                {
                    "name": "",
                    "id": "010051aa-68df-47c1-a47d-2414638ed415",
                    "path": "<Gamepad>/dpad",
                    "interactions": "",
                    "processors": "",
                    "groups": "Generic Gamepad",
                    "action": "Move",
                    "isComposite": false,
                    "isPartOfComposite": false
                },
                {
                    "name": "",
                    "id": "feb5ee77-040a-4a15-90c5-277f9423cf85",
                    "path": "<Gamepad>/leftStick",
                    "interactions": "",
                    "processors": "",
                    "groups": "Generic Gamepad",
                    "action": "Move",
                    "isComposite": false,
                    "isPartOfComposite": false
                },
                {
                    "name": "2D Vector",
                    "id": "490103dc-5bdf-4851-82cf-eb7b3fa91452",
                    "path": "2DVector",
                    "interactions": "",
                    "processors": "",
                    "groups": "",
                    "action": "Move",
                    "isComposite": true,
                    "isPartOfComposite": false
                },
                {
                    "name": "up",
                    "id": "8a0dc1e5-89f5-4080-9bd0-37edd3b0acaa",
                    "path": "<Keyboard>/w",
                    "interactions": "",
                    "processors": "",
                    "groups": "Mouse&Keyboard",
                    "action": "Move",
                    "isComposite": false,
                    "isPartOfComposite": true
                },
                {
                    "name": "up",
                    "id": "25fb6fe7-27fb-435f-9026-4429cec455d4",
                    "path": "<Keyboard>/upArrow",
                    "interactions": "",
                    "processors": "",
                    "groups": "Mouse&Keyboard",
                    "action": "Move",
                    "isComposite": false,
                    "isPartOfComposite": true
                },
                {
                    "name": "down",
                    "id": "95972856-4b06-4211-8331-c622a6d4f3ba",
                    "path": "<Keyboard>/s",
                    "interactions": "",
                    "processors": "",
                    "groups": "Mouse&Keyboard",
                    "action": "Move",
                    "isComposite": false,
                    "isPartOfComposite": true
                },
                {
                    "name": "down",
                    "id": "64a84424-80e7-4b54-9355-04602d1d76c1",
                    "path": "<Keyboard>/downArrow",
                    "interactions": "",
                    "processors": "",
                    "groups": "Mouse&Keyboard",
                    "action": "Move",
                    "isComposite": false,
                    "isPartOfComposite": true
                },
                {
                    "name": "left",
                    "id": "ccccf210-2eac-4932-938c-6ac7980e757d",
                    "path": "<Keyboard>/a",
                    "interactions": "",
                    "processors": "",
                    "groups": "Mouse&Keyboard",
                    "action": "Move",
                    "isComposite": false,
                    "isPartOfComposite": true
                },
                {
                    "name": "left",
                    "id": "c0a84635-ce1e-43d5-bf86-0ca2fa74908b",
                    "path": "<Keyboard>/leftArrow",
                    "interactions": "",
                    "processors": "",
                    "groups": "Mouse&Keyboard",
                    "action": "Move",
                    "isComposite": false,
                    "isPartOfComposite": true
                },
                {
                    "name": "right",
                    "id": "cbc4d223-0484-46b8-8376-6e60850fa08d",
                    "path": "<Keyboard>/d",
                    "interactions": "",
                    "processors": "",
                    "groups": "Mouse&Keyboard",
                    "action": "Move",
                    "isComposite": false,
                    "isPartOfComposite": true
                },
                {
                    "name": "right",
                    "id": "3783ce85-9402-4f1a-9012-ed3eeb410eb9",
                    "path": "<Keyboard>/rightArrow",
                    "interactions": "",
                    "processors": "",
                    "groups": "Mouse&Keyboard",
                    "action": "Move",
                    "isComposite": false,
                    "isPartOfComposite": true
                },
                {
                    "name": "",
                    "id": "43d8c87b-766f-4b13-b693-9c397b276412",
                    "path": "<SwitchProControllerHID>/buttonEast",
                    "interactions": "",
                    "processors": "",
                    "groups": "Generic Gamepad",
                    "action": "Interact",
                    "isComposite": false,
                    "isPartOfComposite": false
                },
                {
                    "name": "",
                    "id": "6ab2206c-d945-4146-afb4-b60fcfc6e3eb",
                    "path": "<XInputController>/buttonSouth",
                    "interactions": "",
                    "processors": "",
                    "groups": "Generic Gamepad",
                    "action": "Interact",
                    "isComposite": false,
                    "isPartOfComposite": false
                },
                {
                    "name": "",
                    "id": "f12ba961-4b46-4d27-b28c-9daf3fa85df6",
                    "path": "<Keyboard>/e",
                    "interactions": "",
                    "processors": "",
                    "groups": "Mouse&Keyboard",
                    "action": "Interact",
                    "isComposite": false,
                    "isPartOfComposite": false
                },
                {
                    "name": "",
                    "id": "5b7a7070-70df-4304-a322-7caa98da5019",
                    "path": "<Gamepad>/buttonWest",
                    "interactions": "",
                    "processors": "",
                    "groups": "Generic Gamepad",
                    "action": "Shoot",
                    "isComposite": false,
                    "isPartOfComposite": false
                },
                {
                    "name": "",
                    "id": "a1966d5b-7021-46b7-9c00-5df3ece3d5a8",
                    "path": "<Mouse>/leftButton",
                    "interactions": "",
                    "processors": "",
                    "groups": "Mouse&Keyboard",
                    "action": "Shoot",
                    "isComposite": false,
                    "isPartOfComposite": false
                },
                {
                    "name": "",
                    "id": "7b09af93-6f60-4b98-a94b-6531d8b3f17c",
                    "path": "<Gamepad>/start",
                    "interactions": "",
                    "processors": "",
                    "groups": "Generic Gamepad",
                    "action": "Pause",
                    "isComposite": false,
                    "isPartOfComposite": false
                },
                {
                    "name": "",
                    "id": "1ec618a0-1307-4534-ad9f-a04d5633a0cc",
                    "path": "<Keyboard>/escape",
                    "interactions": "",
                    "processors": "",
                    "groups": "Mouse&Keyboard",
                    "action": "Pause",
                    "isComposite": false,
                    "isPartOfComposite": false
                }
            ]
        },
        {
            "name": "SimpleTopDownGameOver",
            "id": "52721f99-751a-4c7b-9246-096ab21d4454",
            "actions": [
                {
                    "name": "Retry",
                    "type": "Button",
                    "id": "eee68c6f-cc77-4fb5-9f6c-e6863d042604",
                    "expectedControlType": "Button",
                    "processors": "",
                    "interactions": ""
                },
                {
                    "name": "Back To Main Menu",
                    "type": "Button",
                    "id": "6dc9ad20-b09c-4d12-808e-d78915f12d06",
                    "expectedControlType": "Button",
                    "processors": "",
                    "interactions": ""
                }
            ],
            "bindings": [
                {
                    "name": "",
                    "id": "c9106657-2d5f-4465-a205-79b6b1f082b5",
                    "path": "<Keyboard>/enter",
                    "interactions": "",
                    "processors": "",
                    "groups": "Mouse&Keyboard",
                    "action": "Retry",
                    "isComposite": false,
                    "isPartOfComposite": false
                },
                {
                    "name": "",
                    "id": "e0ad63c9-2111-49e8-8f48-795e045cc6d4",
                    "path": "<Gamepad>/start",
                    "interactions": "",
                    "processors": "",
                    "groups": "Generic Gamepad",
                    "action": "Retry",
                    "isComposite": false,
                    "isPartOfComposite": false
                },
                {
                    "name": "",
                    "id": "6be8114c-d7b1-4725-b52b-a1d8e3c7a462",
                    "path": "<Keyboard>/escape",
                    "interactions": "",
                    "processors": "",
                    "groups": "Mouse&Keyboard",
                    "action": "Back To Main Menu",
                    "isComposite": false,
                    "isPartOfComposite": false
                },
                {
                    "name": "",
                    "id": "6a319566-f6df-4e9b-8448-642ad212d0f9",
                    "path": "<SwitchProControllerHID>/buttonSouth",
                    "interactions": "",
                    "processors": "",
                    "groups": "Generic Gamepad",
                    "action": "Back To Main Menu",
                    "isComposite": false,
                    "isPartOfComposite": false
                },
                {
                    "name": "",
                    "id": "73ee6020-592a-4bb7-8834-169681db3203",
                    "path": "<XInputController>/buttonEast",
                    "interactions": "",
                    "processors": "",
                    "groups": "Generic Gamepad",
                    "action": "Back To Main Menu",
                    "isComposite": false,
                    "isPartOfComposite": false
                }
            ]
        }
    ],
    "controlSchemes": [
        {
            "name": "Generic Gamepad",
            "bindingGroup": "Generic Gamepad",
            "devices": [
                {
                    "devicePath": "<Gamepad>",
                    "isOptional": false,
                    "isOR": false
                }
            ]
        },
        {
            "name": "Mouse&Keyboard",
            "bindingGroup": "Mouse&Keyboard",
            "devices": [
                {
                    "devicePath": "<Keyboard>",
                    "isOptional": false,
                    "isOR": false
                },
                {
                    "devicePath": "<Mouse>",
                    "isOptional": false,
                    "isOR": false
                }
            ]
        }
    ]
}