%YAML 1.1
%TAG !u! tag:unity3d.com,2011:
--- !u!114 &11400000
MonoBehaviour:
  m_ObjectHideFlags: 0
  m_CorrespondingSourceObject: {fileID: 0}
  m_PrefabInstance: {fileID: 0}
  m_PrefabAsset: {fileID: 0}
  m_GameObject: {fileID: 0}
  m_Enabled: 1
  m_EditorHideFlags: 0
  m_Script: {fileID: 11500000, guid: 3dc58c9bcae63554ea2bfa6ad17afd86, type: 3}
  m_Name: Baby Murloc Deck
  m_EditorClassIdentifier: 
  cards:
  - {fileID: 11400000, guid: 696f5ad35821e7545afc995a785adbc9, type: 2}
  - {fileID: 11400000, guid: ce5401e7bf0b9004aaae8cfaf0e0b164, type: 2}
  - {fileID: 11400000, guid: 5d46de96b8db25a47a7cec8fa2e53784, type: 2}
  - {fileID: 11400000, guid: ce5401e7bf0b9004aaae8cfaf0e0b164, type: 2}
  - {fileID: 11400000, guid: 696f5ad35821e7545afc995a785adbc9, type: 2}
