%YAML 1.1
%TAG !u! tag:unity3d.com,2011:
--- !u!114 &11400000
MonoBehaviour:
  m_ObjectHideFlags: 0
  m_CorrespondingSourceObject: {fileID: 0}
  m_PrefabInstance: {fileID: 0}
  m_PrefabAsset: {fileID: 0}
  m_GameObject: {fileID: 0}
  m_Enabled: 1
  m_EditorHideFlags: 0
  m_Script: {fileID: 11500000, guid: b6bbfe66943bb424da9d23810608525d, type: 3}
  m_Name: Mabel Inventory
  m_EditorClassIdentifier: 
  database: []
  items:
  - {fileID: 11400000, guid: 92b0d56044296c84fb9af5386bc32a88, type: 2}
  - {fileID: 11400000, guid: 211f961374ba3fa4aae8349b3d6b8dfa, type: 2}
  - {fileID: 11400000, guid: 5f325d5278db9ea41b59066cc7f41114, type: 2}
